1426515117
s:4662:"<p><img src="http://www.prospectmagazine.co.uk/wp-content/uploads/2014/02/216_feature_ukraine.tif-1024x768.jpg" alt="Maidan" /></p>
<p>It was to be a decisive move that put an end to the Euromaidan protests. After three months of protesters camping on Ukraine's main city square, pro-Yanukovich forces moved in thousands of protesters. Although they were not the first casualties during the past quarter of the year, the 28 people (or more – exact, verifiable figures are hard to come by) who lost their lives on the night of the 18th February were to mark a change in the atmosphere on the Maidan.</p>
<p>===</p>
<p>Ukraine is now right on the brink of civil war. While it's unclear which side fired the first rounds, it is now all but certain that both protesters and interior ministry forces are now armed. There are rumours that interior ministry troops are refusing to fire on protesters, but the restraint shown so far may well be a political decision. While Ukrainian sources are claiming that three EU ministers are meeting President Yanukovich, EU sources are saying that the ministers have been evacuated for their own security. The latter would seem to be more reliable at the moment.</p>
<blockquote>
<p>Proof of police snipers. <a href="https://twitter.com/KyivPost">@KyivPost</a> photographers Pavlo Podufalov just took this photo near Maidan. <a href="https://twitter.com/search?q=%23euromaidan&amp;amp;src=hash">#euromaidan</a>   <a href="http://t.co/wEzxP3l6tn"><img src="https://pbs.twimg.com/media/Bg6EWHkIMAA8vN4.jpg" alt="" /></a><br />
&mdash; Christopher Miller (@ChristopherJM) <a href="https://twitter.com/ChristopherJM/statuses/436431729549905920">February 20, 2014</a></p>
<p>Oh, and this guy just showed up with a hunting rifle. Off to the frontline.<br />
<a href="http://t.co/TgKW5pnzNc"><img src="https://pbs.twimg.com/media/Bg6F0hqIAAA6wdg.jpg" alt="" /></a><br />
&mdash; Olaf Koens (@obk) <a href="https://twitter.com/obk/statuses/436433351566950400">February 20, 2014</a></p>
</blockquote>
<p>Live footage from in Ukraine (run by protesters) shows protesters in control of Maidan, but observers are keenly aware that the true reason for the live stream is insurance. Yanukovich is unlikely to allow his forces to resort to brutal violence while, quite literally, the world is watching. Nevertheless, reports from AP are claiming that 8 protesters died this morning while trying to storm a building near the square, while other reports put the number as high as 35.</p>
<iframe width="560" height="315" src="//www.youtube.com/embed/Y_LFrMcoEm4" frameborder="0" allowfullscreen></iframe>
<p>Kyiv Post journalist Christopher Miller is also reporting that protesters have captured more than 50 police, and are currently keeping them imprisoned in a building controlled by the protesters.</p>
<blockquote>
<p>More than 50 captured police led inside the energy bldg next door to city hall<br />
<a href="http://t.co/KUKEnERFQU"><img src="https://pbs.twimg.com/media/Bg564-CIIAADnwF.jpg" alt="" /></a><br />
&mdash; Christopher Miller (@ChristopherJM) <a href="https://twitter.com/ChristopherJM/statuses/436421333166325760">February 20, 2014</a></p>
</blockquote>
<p>What initially began as a protest against Yanukovich refusing an EU co-operation deal has descended into a more general anti-government movement. We have seen Ukraine's nationalists capitalising on this, as well as opposition politicians encouraging the protests and government officials losing their jobs. The EU seem to be trying to defuse the situation, calling on Yanukovich to avoid violence, and threatening concrete sanctions. However, the lumbering moves of international democracy are almost certain to be too slow to keep pace with developments in Ukraine.</p>
<p>Meanwhile a video made on Maidan has gone viral, in which a young protester explains her reasons for being on Maidan. The video predates much of the most recent violence.</p>
<iframe width="560" height="315" src="//www.youtube.com/embed/Hvds2AIiWLA" frameborder="0" allowfullscreen></iframe>
<p>The future is unclear, and for the first time in a long time hushed whispers of secession are spreading. Lviv, another Western, pro-European Ukrainian city has declared political autonomy, and is rejecting Yanukovich. While a split is unlikely, it does make some geographic sense: the vast majority of pro-Europeans live in the Western half of Ukraine.</p>
<p>Whatever the future in Ukraine, it's hard to imagine Yanukovich as part of it.</p>
<p>For more updates on the situation, follow my twitter, <a href="http://www.twitter.com/d1sxeyes">@d1sxeyes</a>, and keep an eye on the live stream.</p>";